{
"auths": {
{% for values in pillar.get('registry', {}) %}
    "{{ values['address'] }}": {
        "auth": "{{ values['auth'] }}",
        "email": "{{ values['email'] }}"
    }{% if loop.index < pillar.get('registry', {}) | length %},{% endif %}
{% endfor %}
}
}
