{
  "hsmKeyLabel":"BRADESCO.TRANS.01",
  "hsmKeyAlgo":"TDES_CBC_PAD80",
  "panRangeSet": {
    "ranges": [
      {
        "min": "6509 0400 0000 0000",
        "max": "6550 0499 9999 9999"
      }
    ]
  },
  "cardProducts": [
    {
      "name": "FGRAFITE",
      "panRangeSet": {
        "ranges": [
          {
            "min": "65500000",
            "max": "65500099"
          }
        ]
      },
      "idvMethodsExtractor": {
        "@class": "com.oberthur.hce.issuer.mock.model.DirectIDVExtractor"
      },
      "tokenize": true
    },
    {
      "name": "FGRAFITE",
      "panRangeSet": {
        "ranges": [
          {
            "min": "65500200",
            "max": "65500299"
          }
        ]
      },
      "idvMethodsExtractor": {
        "@class": "com.oberthur.hce.issuer.mock.model.DirectIDVExtractor",
        "idvMethods": [
          "App"
        ]
      },
      "tokenize": true
    },
    {
      "name": "FGRAFITE",
      "panRangeSet": {
        "ranges": [
          {
            "min": "65500400",
            "max": "65500499"
          }
        ]
      },
      "idvMethodsExtractor": {
        "@class": "com.oberthur.hce.issuer.mock.model.DirectIDVExtractor",
        "idvMethods": [
          "OTPEmail",
          "OTPSMS",
          "OTPARS"
        ]
      },
      "tokenize": true
    },
    {
      "name": "FNANQUIM",
      "panRangeSet": {
        "ranges": [
          {
            "min": "65165200",
            "max": "65165299"
          }
        ]
      },
      "idvMethodsExtractor": {
        "@class": "com.oberthur.hce.issuer.mock.model.DirectIDVExtractor"
      },
      "tokenize": true,
      "pullModeDeploymentDisabled": true
    },
    {
      "name": "FNANQUIM",
      "panRangeSet": {
        "ranges": [
          {
            "min": "65165400",
            "max": "65165499"
          }
        ]
      },
      "idvMethodsExtractor": {
        "@class": "com.oberthur.hce.issuer.mock.model.DirectIDVExtractor",
        "idvMethods": [
          "OTPARS"
        ]
      },
      "tokenize": true
    },
    {
      "name": "FNANQUIM",
      "panRangeSet": {
        "ranges": [
          {
            "min": "65165500",
            "max": "65165599"
          }
        ]
      },
      "idvMethodsExtractor": {
        "@class": "com.oberthur.hce.issuer.mock.model.DirectIDVExtractor",
        "idvMethods": [
          "CallCenter"
        ]
      },
      "tokenize": true
    },
    {
      "name": "FCTH",
      "panRangeSet": {
        "ranges": [
          {
            "min": "65090400",
            "max": "65090499"
          }
        ]
      },
      "idvMethodsExtractor": {
        "@class": "com.oberthur.hce.issuer.mock.model.DirectIDVExtractor",
        "idvMethods": [
          "App"
        ]
      },
      "tokenize": true
    },
    {
      "name": "CUSTOMGOLD",
      "panRangeSet": {
        "ranges": [
          {
            "min": "70000000",
            "max": "70009999"
          }
        ]
      },
      "idvMethodsExtractor": {
        "@class": "com.oberthur.hce.issuer.mock.model.DirectIDVExtractor",
        "idvMethods": [
          "App"
        ]
      },
      "tokenize": true
    }
  ]
}