{
    responseCodes: [
        {
            responseCodes: ["B0", "B2", "B5", "B7", "B8"],
            mti: { "@type": re,
                mask: "0.[0,2]..."
            },
            status:"APPROVED"
        },
        {
            responseCodes: ["B1", "B3", "B4", "B6"],
            mti: { "@type": re,
                mask: "0.[0,2]..."
            },
            status:"DECLINED"
        }
    ]
}