{
    "pemProperties": {
        "01*": {"tags": ["CVC2"], "type": "MANUAL"},
        "02*": {"tags": ["MSD"], "type": "MAGNETIC_STRIPE"},
        "03*": {"tags": ["CVC2"], "type": "BCR"},
        "05*": {"tags": ["EMV", "ICC"], "type": "ICC"},
        "07*": {"tags": ["CVC2"], "type": "MANUAL"},
        "81*": {"tags": ["CONTACTLESS", "MSD", "ICC"], "type": "CONTACTLESS_MAGNETIC_STRIPE"},
        "83*": {"tags": ["CONTACTLESS", "EMV", "ICC"], "type": "CONTACTLESS_ICC"},
        "85*": {"tags": ["MSD", "ICC"], "type": "MAGNETIC_STRIPE"},
        "90*": {"tags": ["CVC2"], "type": "MANUAL"},
        "91*": {"tags": ["CVC2"], "type": "MANUAL"},
        "92*": {"tags": ["CVC2"], "type": "MANUAL"},
        "93*": {"tags": ["CVC2"], "type": "MANUAL"}
    }
}